{
    "id":"7f0b1d68-d6fa-4827-80c4-e0707cfbae4e",
    "schema":"https://metadata.datadrivendiscovery.org/schemas/v0/pipeline.json",
    "created":"2019-05-05T05:35:39.048366Z",
    "context":"PRETRAINING",
    "inputs":[
        {
            "name":"input dataset"
        }
    ],
    "outputs":[
        {
            "data":"steps.10.produce",
            "name":"predictions of input dataset"
        }
    ],
    "steps":[
        {
            "type":"PRIMITIVE",
            "primitive":{
                "id":"f31f8c1f-d1c5-43e5-a4b2-2ae4a761ef2e",
                "version":"0.2.0",
                "python_path":"d3m.primitives.data_transformation.denormalize.Common",
                "name":"Denormalize datasets",
                "digest":"81f07c01fddaff5d5d931730d73f691bd35645c4dc4c7bcb00f137d197dad42f"
            },
            "arguments":{
                "inputs":{
                    "type":"CONTAINER",
                    "data":"inputs.0"
                }
            },
            "outputs":[
                {
                    "id":"produce"
                }
            ],
            "hyperparams":{
                "starting_resource":{
                    "type":"VALUE",
                    "data":null
                },
                "recursive":{
                    "type":"VALUE",
                    "data":true
                },
                "many_to_many":{
                    "type":"VALUE",
                    "data":false
                },
                "discard_not_joined_tabular_resources":{
                    "type":"VALUE",
                    "data":false
                }
            }
        },
        {
            "type":"PRIMITIVE",
            "primitive":{
                "id":"4b42ce1e-9b98-4a25-b68e-fad13311eb65",
                "version":"0.3.0",
                "python_path":"d3m.primitives.data_transformation.dataset_to_dataframe.Common",
                "name":"Extract a DataFrame from a Dataset"
            },
            "arguments":{
                "inputs":{
                    "type":"CONTAINER",
                    "data":"steps.0.produce"
                }
            },
            "outputs":[
                {
                    "id":"produce"
                }
            ]
        },
        {
            "type":"PRIMITIVE",
            "primitive":{
                "id":"4503a4c6-42f7-45a1-a1d4-ed69699cf5e1",
                "version":"0.2.0",
                "python_path":"d3m.primitives.data_transformation.extract_columns_by_semantic_types.DataFrameCommon",
                "name":"Extracts columns by semantic type",
                "digest":"67977ed362c96178cd3e61cafd94f84e17a288cf5ed9c5f2f5a0cb81a99f77bc"
            },
            "arguments":{
                "inputs":{
                    "type":"CONTAINER",
                    "data":"steps.1.produce"
                }
            },
            "outputs":[
                {
                    "id":"produce"
                }
            ],
            "hyperparams":{
                "semantic_types":{
                    "type":"VALUE",
                    "data":[
                        "https://metadata.datadrivendiscovery.org/types/PrimaryKey",
                        "https://metadata.datadrivendiscovery.org/types/Attribute"
                    ]
                }
            }
        },
        {
            "type":"PRIMITIVE",
            "primitive":{
                "id":"4503a4c6-42f7-45a1-a1d4-ed69699cf5e1",
                "version":"0.2.0",
                "python_path":"d3m.primitives.data_transformation.extract_columns_by_semantic_types.DataFrameCommon",
                "name":"Extracts columns by semantic type",
                "digest":"67977ed362c96178cd3e61cafd94f84e17a288cf5ed9c5f2f5a0cb81a99f77bc"
            },
            "arguments":{
                "inputs":{
                    "type":"CONTAINER",
                    "data":"steps.1.produce"
                }
            },
            "outputs":[
                {
                    "id":"produce"
                }
            ],
            "hyperparams":{
                "semantic_types":{
                    "type":"VALUE",
                    "data":[
                        "https://metadata.datadrivendiscovery.org/types/TrueTarget"
                    ]
                }
            }
        },
        {
            "type":"PRIMITIVE",
            "primitive":{
                "id":"18f0bb42-6350-3753-8f2d-d1c3da70f279",
                "version":"1.5.3",
                "python_path":"d3m.primitives.data_preprocessing.encoder.DSBOX",
                "name":"ISI DSBox Data Encoder",
                "digest":"09795e9b7c78a5463c10749a29ce40bf6a2a56cc46541bd00b0d7308483ec0be"
            },
            "arguments":{
                "inputs":{
                    "type":"CONTAINER",
                    "data":"steps.3.produce"
                }
            },
            "outputs":[
                {
                    "id":"produce"
                }
            ]
        },
	        {
            "type":"PRIMITIVE",
            "primitive":{
                "id":"18f0bb42-6350-3753-8f2d-d1c3da70f279",
                "version":"1.5.3",
                "python_path":"d3m.primitives.data_preprocessing.encoder.DSBOX",
                "name":"ISI DSBox Data Encoder",
                "digest":"09795e9b7c78a5463c10749a29ce40bf6a2a56cc46541bd00b0d7308483ec0be"
            },
            "arguments":{
                "inputs":{
                    "type":"CONTAINER",
                    "data":"steps.2.produce"
                }
            },
            "outputs":[
                {
                    "id":"produce"
                }
            ]
        },
        {
            "type":"PRIMITIVE",
            "primitive":{
                "id":"7ddf2fd8-2f7f-4e53-96a7-0d9f5aeecf93",
                "version":"1.5.3",
                "python_path":"d3m.primitives.data_transformation.to_numeric.DSBOX",
                "name":"ISI DSBox To Numeric DataFrame",
                "digest":"18d17321f9da8a928559bbdae94ecdd570697119ac4bf90dc63af9da1c326693"
            },
            "arguments":{
                "inputs":{
                    "type":"CONTAINER",
                    "data":"steps.5.produce"
                }
            },
            "outputs":[
                {
                    "id":"produce"
                }
            ]
        },
        {
            "type":"PRIMITIVE",
            "primitive":{
                "id":"7894b699-61e9-3a50-ac9f-9bc510466667",
                "version":"1.5.3",
                "python_path":"d3m.primitives.data_preprocessing.mean_imputation.DSBOX",
                "name":"DSBox Mean Imputer",
                "digest":"071ff34161c624ec1732627e096ed32eb6e4a5901b28c12d16ab57289767af0e"
            },
            "arguments":{
                "inputs":{
                    "type":"CONTAINER",
                    "data":"steps.6.produce"
                }
            },
            "outputs":[
                {
                    "id":"produce"
                }
            ]
        },
        {
            "type":"PRIMITIVE",
            "primitive":{
                "id":"dsbox-multi-table-feature-scaler",
                "version":"1.4.4",
                "python_path":"d3m.primitives.normalization.IQRScaler.DSBOX",
                "name":"DSBox feature scaler"
            },
            "arguments":{
                "inputs":{
                    "type":"CONTAINER",
                    "data":"steps.7.produce"
                }
            },
            "outputs":[
                {
                    "id":"produce"
                }
            ]
        },
        {
            "type":"PRIMITIVE",
            "primitive":{
                "id":"393f9de8-a5b9-4d92-aaff-8808d563b6c4",
                "version":"1.0.0",
                "python_path":"d3m.primitives.feature_construction.corex_supervised.EchoIB",
                "name":"Echo"
            },
            "arguments":{
                "inputs":{
                    "type":"CONTAINER",
                    "data":"steps.8.produce"
                },
		"outputs":
            {
                "type":"CONTAINER",
                "data":"steps.4.produce"
            }
            },
            "outputs":[
                {
                    "id":"produce"
                }
            ],
            "hyperparams":{
                "beta":{
                    "type":"VALUE",
                    "data": 0.01
                },
                "task":{
                    "type":"VALUE",
                    "data":"REGRESSION"
                }
            }
        },
        {
        "type":"PRIMITIVE",
        "primitive":{
            "id":"1dd82833-5692-39cb-84fb-2455683075f3",
            "version":"2019.4.4",
            "python_path":"d3m.primitives.regression.random_forest.SKlearn",
            "name":"sklearn.ensemble.forest.RandomForestRegressor"
                },
        "arguments":{
	        "inputs":{
                "type":"CONTAINER",
                "data":"steps.9.produce"
		        },
            "outputs":
	        {
                "type":"CONTAINER",
                "data":"steps.4.produce"
		        }
        },
        "outputs":[
	        {
                "id":"produce"
		        }],
        "hyperparams":{
            "add_index_columns":{
                "type":"VALUE",
                "data":true
            },
            "return_result":{
                "type":"VALUE",
                "data":"new"
            },
            "use_semantic_types":{
                "type":"VALUE",
                "data":true
            }
        }
        }
    ],
    "name":"ISI_echo_clf:139758531711192",
    "description":"",
    "metric":"accuracy"
}
