{
    "id": "15425274-4e37-487f-976e-4a79d5c636bf",
    "schema": "https://metadata.datadrivendiscovery.org/schemas/v0/pipeline.json",
    "created": "2019-06-14T18:25:29.676512Z",
    "inputs": [
        {
            "name": "inputs"
        }
    ],
    "outputs": [
        {
            "data": "steps.1.produce",
            "name": "output"
        }
    ],
    "steps": [
        {
            "type": "PRIMITIVE",
            "primitive": {
                "id": "79012210-2463-4f94-9da6-11bdc5a7e6c4",
                "version": "0.1.0",
                "python_path": "d3m.primitives.data_transformation.load_single_graph.DistilSingleGraphLoader",
                "name": "Load single graph and dataframe into a parseable object",
                "digest": "c0e4f6bcfe77ff4707e7bc29fcb9d4edc71660641791c4599ed64b5df2d11b95"
            },
            "arguments": {
                "inputs": {
                    "type": "CONTAINER",
                    "data": "inputs.0"
                }
            },
            "outputs": [
                {
                    "id": "produce"
                },
                {
                    "id": "produce_target"
                }
            ]
        },
        {
            "type": "PRIMITIVE",
            "primitive": {
                "id": "064cec55-39dd-45b7-a663-50d3e17e0c42",
                "version": "0.1.0",
                "python_path": "d3m.primitives.data_transformation.community_detection.DistilCommunityDetection",
                "name": "CommunityDetection",
                "digest": "82b1eb9aaeff87ab955d9270979515d357d76c34299cf961520f4095fabd9ebd"
            },
            "arguments": {
                "inputs": {
                    "type": "CONTAINER",
                    "data": "steps.0.produce"
                },
                "outputs": {
                    "type": "CONTAINER",
                    "data": "steps.0.produce_target"
                }
            },
            "outputs": [
                {
                    "id": "produce"
                }
            ],
            "hyperparams": {
                "metric": {
                    "type": "VALUE",
                    "data": "normalizedMutualInformation"
                }
            }
        }
    ],
    "digest": "246364dbb70beef8f36372a3943fd51797a05e5d8952e63fb922baffc79e5087"
}
