{
    "id":"1f2c0452-5166-4328-99cd-42a26b540f16",
    "schema":"https://metadata.datadrivendiscovery.org/schemas/v0/pipeline.json",
    "created":"2020-01-17T21:59:42.030286Z",
    "inputs":[
        {
            "name":"input dataset"
        }
    ],
    "outputs":[
        {
            "data":"steps.14.produce",
            "name":"predictions of input dataset"
        }
    ],
    "steps":[
        {
            "type":"PRIMITIVE",
            "primitive":{
                "id":"dsbox-featurizer-do-nothing-dataset-version",
                "version":"1.5.3",
                "python_path":"d3m.primitives.data_preprocessing.do_nothing_for_dataset.DSBOX",
                "name":"DSBox do-nothing primitive dataset version",
                "digest":"7259cd6f5276b6920b4b56bcf3239886f56d6e9df109145516ba2af07dcfc45a"
            },
            "arguments":{
                "inputs":{
                    "type":"CONTAINER",
                    "data":"inputs.0"
                }
            },
            "outputs":[
                {
                    "id":"produce"
                }
            ]
        },
        {
            "type":"PRIMITIVE",
            "primitive":{
                "id":"f31f8c1f-d1c5-43e5-a4b2-2ae4a761ef2e",
                "version":"0.2.0",
                "python_path":"d3m.primitives.data_transformation.denormalize.Common",
                "name":"Denormalize datasets",
                "digest":"c2ac53d5362c47b9227d72b31c4845cf06331c044c443f64b06173a82fa2af58"
            },
            "arguments":{
                "inputs":{
                    "type":"CONTAINER",
                    "data":"steps.0.produce"
                }
            },
            "outputs":[
                {
                    "id":"produce"
                }
            ]
        },
        {
            "type":"PRIMITIVE",
            "primitive":{
                "id":"4b42ce1e-9b98-4a25-b68e-fad13311eb65",
                "version":"0.3.0",
                "python_path":"d3m.primitives.data_transformation.dataset_to_dataframe.Common",
                "name":"Extract a DataFrame from a Dataset",
                "digest":"721acdfdf36de9b51a2100a2f4056904d2641c49e5812515fe565adecdf076d1"
            },
            "arguments":{
                "inputs":{
                    "type":"CONTAINER",
                    "data":"steps.1.produce"
                }
            },
            "outputs":[
                {
                    "id":"produce"
                }
            ]
        },
        {
            "type":"PRIMITIVE",
            "primitive":{
                "id":"4503a4c6-42f7-45a1-a1d4-ed69699cf5e1",
                "version":"0.3.0",
                "python_path":"d3m.primitives.data_transformation.extract_columns_by_semantic_types.Common",
                "name":"Extracts columns by semantic type",
                "digest":"8ec39fb39a8a0caca637ef87c1a641b43b1fde77c81a1627456b75f388fa1741"
            },
            "arguments":{
                "inputs":{
                    "type":"CONTAINER",
                    "data":"steps.2.produce"
                }
            },
            "outputs":[
                {
                    "id":"produce"
                }
            ],
            "hyperparams":{
                "semantic_types":{
                    "type":"VALUE",
                    "data":[
                        "https://metadata.datadrivendiscovery.org/types/PrimaryKey",
                        "https://metadata.datadrivendiscovery.org/types/Attribute"
                    ]
                }
            }
        },
        {
            "type":"PRIMITIVE",
            "primitive":{
                "id":"b2612849-39e4-33ce-bfda-24f3e2cb1e93",
                "version":"1.5.3",
                "python_path":"d3m.primitives.schema_discovery.profiler.DSBOX",
                "name":"DSBox Profiler",
                "digest":"6fa825acce167f3130bafe9dd628d8f4b8bb6ae75dfe39778564d85d74f46b73"
            },
            "arguments":{
                "inputs":{
                    "type":"CONTAINER",
                    "data":"steps.3.produce"
                }
            },
            "outputs":[
                {
                    "id":"produce"
                }
            ]
        },
        {
            "type":"PRIMITIVE",
            "primitive":{
                "id":"dsbox-cleaning-featurizer",
                "version":"1.5.3",
                "python_path":"d3m.primitives.data_cleaning.cleaning_featurizer.DSBOX",
                "name":"DSBox Cleaning Featurizer",
                "digest":"f678cd85476382789f30c0173ca91e6217a58b022887663780d035b1d58ada3a"
            },
            "arguments":{
                "inputs":{
                    "type":"CONTAINER",
                    "data":"steps.4.produce"
                }
            },
            "outputs":[
                {
                    "id":"produce"
                }
            ]
        },
        {
            "type":"PRIMITIVE",
            "primitive":{
                "id":"DSBox-unary-encoder",
                "version":"1.5.3",
                "python_path":"d3m.primitives.data_preprocessing.unary_encoder.DSBOX",
                "name":"DSBox Unary Data Encoder",
                "digest":"beee3049f1f2c2c574a404462f14be89df7d34e9c95c918ed88f328e724e22c0"
            },
            "arguments":{
                "inputs":{
                    "type":"CONTAINER",
                    "data":"steps.5.produce"
                }
            },
            "outputs":[
                {
                    "id":"produce"
                }
            ]
        },
        {
            "type":"PRIMITIVE",
            "primitive":{
                "id":"7ddf2fd8-2f7f-4e53-96a7-0d9f5aeecf93",
                "version":"1.5.3",
                "python_path":"d3m.primitives.data_transformation.to_numeric.DSBOX",
                "name":"ISI DSBox To Numeric DataFrame",
                "digest":"ac7ca31e3a3e45b1a63ba57c38a59cc4539bd0fe1d056c28739efd5a8727c07f"
            },
            "arguments":{
                "inputs":{
                    "type":"CONTAINER",
                    "data":"steps.6.produce"
                }
            },
            "outputs":[
                {
                    "id":"produce"
                }
            ]
        },
        {
            "type":"PRIMITIVE",
            "primitive":{
                "id":"f70b2324-1102-35f7-aaf6-7cd8e860acc4",
                "version":"1.5.3",
                "python_path":"d3m.primitives.data_preprocessing.iterative_regression_imputation.DSBOX",
                "name":"DSBox Iterative Regression Imputer",
                "digest":"df65cb26413fd71afc82d46ee916de470970be822beb233885271f776718f44a"
            },
            "arguments":{
                "inputs":{
                    "type":"CONTAINER",
                    "data":"steps.7.produce"
                }
            },
            "outputs":[
                {
                    "id":"produce"
                }
            ]
        },
        {
            "type":"PRIMITIVE",
            "primitive":{
                "id":"dsbox-multi-table-feature-scaler",
                "version":"1.5.3",
                "python_path":"d3m.primitives.normalization.iqr_scaler.DSBOX",
                "name":"DSBox feature scaler",
                "digest":"549212bedebb410c91cef5d38043d8a99923696370890f6b7d0211277b9dcfbc"
            },
            "arguments":{
                "inputs":{
                    "type":"CONTAINER",
                    "data":"steps.8.produce"
                }
            },
            "outputs":[
                {
                    "id":"produce"
                }
            ]
        },
        {
            "type":"PRIMITIVE",
            "primitive":{
                "id":"dsbox-featurizer-do-nothing",
                "version":"1.5.3",
                "python_path":"d3m.primitives.data_preprocessing.do_nothing.DSBOX",
                "name":"DSBox do-nothing primitive",
                "digest":"85058e1aaa406ce3f053acbb7cbce5a864f4b91d4a277b29ed8ce755e8879248"
            },
            "arguments":{
                "inputs":{
                    "type":"CONTAINER",
                    "data":"steps.9.produce"
                }
            },
            "outputs":[
                {
                    "id":"produce"
                }
            ]
        },
        {
            "type":"PRIMITIVE",
            "primitive":{
                "id":"4503a4c6-42f7-45a1-a1d4-ed69699cf5e1",
                "version":"0.3.0",
                "python_path":"d3m.primitives.data_transformation.extract_columns_by_semantic_types.Common",
                "name":"Extracts columns by semantic type",
                "digest":"8ec39fb39a8a0caca637ef87c1a641b43b1fde77c81a1627456b75f388fa1741"
            },
            "arguments":{
                "inputs":{
                    "type":"CONTAINER",
                    "data":"steps.2.produce"
                }
            },
            "outputs":[
                {
                    "id":"produce"
                }
            ],
            "hyperparams":{
                "semantic_types":{
                    "type":"VALUE",
                    "data":[
                        "https://metadata.datadrivendiscovery.org/types/TrueTarget"
                    ]
                }
            }
        },
        {
            "type":"PRIMITIVE",
            "primitive":{
                "id":"7ddf2fd8-2f7f-4e53-96a7-0d9f5aeecf93",
                "version":"1.5.3",
                "python_path":"d3m.primitives.data_transformation.to_numeric.DSBOX",
                "name":"ISI DSBox To Numeric DataFrame",
                "digest":"ac7ca31e3a3e45b1a63ba57c38a59cc4539bd0fe1d056c28739efd5a8727c07f"
            },
            "arguments":{
                "inputs":{
                    "type":"CONTAINER",
                    "data":"steps.11.produce"
                }
            },
            "outputs":[
                {
                    "id":"produce"
                }
            ],
            "hyperparams":{
                "drop_non_numeric_columns":{
                    "type":"VALUE",
                    "data":false
                }
            }
        },
        {
            "type":"PRIMITIVE",
            "primitive":{
                "id":"dsbox-featurizer-do-nothing",
                "version":"1.5.3",
                "python_path":"d3m.primitives.data_preprocessing.do_nothing.DSBOX",
                "name":"DSBox do-nothing primitive",
                "digest":"85058e1aaa406ce3f053acbb7cbce5a864f4b91d4a277b29ed8ce755e8879248"
            },
            "arguments":{
                "inputs":{
                    "type":"CONTAINER",
                    "data":"steps.10.produce"
                }
            },
            "outputs":[
                {
                    "id":"produce"
                }
            ]
        },
        {
            "type":"PRIMITIVE",
            "primitive":{
                "id":"01d2c086-91bf-3ca5-b023-5139cf239c77",
                "version":"2019.11.13",
                "python_path":"d3m.primitives.classification.gradient_boosting.SKlearn",
                "name":"sklearn.ensemble.gradient_boosting.GradientBoostingClassifier",
                "digest":"9833b104ed5fc9d3e9529770f8fb948f85fe04f2c29cee90611ef35ad190cb38"
            },
            "arguments":{
                "inputs":{
                    "type":"CONTAINER",
                    "data":"steps.13.produce"
                },
                "outputs":{
                    "type":"CONTAINER",
                    "data":"steps.12.produce"
                }
            },
            "outputs":[
                {
                    "id":"produce"
                }
            ],
            "hyperparams":{
                "add_index_columns":{
                    "type":"VALUE",
                    "data":true
                },
                "learning_rate":{
                    "type":"VALUE",
                    "data":0.1
                },
                "max_depth":{
                    "type":"VALUE",
                    "data":5
                },
                "min_samples_leaf":{
                    "type":"VALUE",
                    "data":{
                        "case":"absolute",
                        "value":2
                    }
                },
                "min_samples_split":{
                    "type":"VALUE",
                    "data":{
                        "case":"absolute",
                        "value":3
                    }
                },
                "n_estimators":{
                    "type":"VALUE",
                    "data":50
                },
                "return_result":{
                    "type":"VALUE",
                    "data":"new"
                },
                "use_semantic_types":{
                    "type":"VALUE",
                    "data":true
                }
            }
        }
    ],
    "name":"default_classification_template2:140649882438968",
    "description":"",
    "digest":"93c2971252ba167e3a00ccfa152f300891819ce9ec646411575ea3d0ee1d0bc6"
}