{
    "id": "aac8d9b0-1420-4500-b818-761b8e7a0a73",
    "schema": "https://metadata.datadrivendiscovery.org/schemas/v0/pipeline.json",
    "created": "2019-06-20T22:20:54.360511Z",
    "inputs": [
        {
            "name": "inputs"
        }
    ],
    "outputs": [
        {
            "data": "steps.1.produce",
            "name": "Results"
        }
    ],
    "steps": [
        {
            "type": "PRIMITIVE",
            "primitive": {
                "id": "e149ba15-4004-4642-a00f-e7c833653a54",
                "version": "1.5.5",
                "python_path": "d3m.primitives.community_detection.community_detection_parser.CommunityDetectionParser",
                "name": "Community Detection Parser"
            },
            "arguments": {
                "inputs": {
                    "type": "CONTAINER",
                    "data": "inputs.0"
                }
            },
            "outputs": [
                {
                    "id": "produce"
                }
            ]
        },
        {
            "type": "PRIMITIVE",
            "primitive": {
                "id": "5b08a46a-28f6-4987-a8c6-840edd5877b0",
                "version": "1.5.5",
                "python_path": "d3m.primitives.classification.community_detection.CommunityDetection",
                "name": "Community Detection"
            },
            "arguments": {
                "inputs": {
                    "type": "CONTAINER",
                    "data": "steps.0.produce"
                }
            },
            "outputs": [
                {
                    "id": "produce"
                }
            ]
        }
    ]
}