{
    "id": "0331aaa5-005f-47a5-b95c-45674603c659",
    "schema": "https://metadata.datadrivendiscovery.org/schemas/v0/pipeline.json",
    "created": "2020-01-23T19:07:13.472771Z",
    "inputs": [
        {
            "name": "inputs"
        }
    ],
    "outputs": [
        {
            "data": "steps.9.produce",
            "name": "output"
        }
    ],
    "steps": [
        {
            "type": "PRIMITIVE",
            "primitive": {
                "id": "4b42ce1e-9b98-4a25-b68e-fad13311eb65",
                "version": "0.3.0",
                "python_path": "d3m.primitives.data_transformation.dataset_to_dataframe.Common",
                "name": "Extract a DataFrame from a Dataset",
                "digest": "584e1add8f2b86bb78446f33a4272a6ce44ccc5a4009d63df2831288475794e0"
            },
            "arguments": {
                "inputs": {
                    "type": "CONTAINER",
                    "data": "inputs.0"
                }
            },
            "outputs": [
                {
                    "id": "produce"
                }
            ]
        },
        {
            "type": "PRIMITIVE",
            "primitive": {
                "id": "d510cb7a-1782-4f51-b44c-58f0236e47c7",
                "version": "0.6.0",
                "python_path": "d3m.primitives.data_transformation.column_parser.Common",
                "name": "Parses strings into their types",
                "digest": "c97a6bb402e376b6fb13c6d8fd15f0bc220728b01fffa871d47acf0c8ca807af"
            },
            "arguments": {
                "inputs": {
                    "type": "CONTAINER",
                    "data": "steps.0.produce"
                }
            },
            "outputs": [
                {
                    "id": "produce"
                }
            ]
        },
        {
            "type": "PRIMITIVE",
            "primitive": {
                "id": "4503a4c6-42f7-45a1-a1d4-ed69699cf5e1",
                "version": "0.3.0",
                "python_path": "d3m.primitives.data_transformation.extract_columns_by_semantic_types.Common",
                "name": "Extracts columns by semantic type",
                "digest": "420ab338eaf2159a6acb142be4d152442889028a0a18a5b15a8bf28e648b7f90"
            },
            "arguments": {
                "inputs": {
                    "type": "CONTAINER",
                    "data": "steps.1.produce"
                }
            },
            "outputs": [
                {
                    "id": "produce"
                }
            ],
            "hyperparams": {
                "semantic_types": {
                    "type": "VALUE",
                    "data": [
                        "https://metadata.datadrivendiscovery.org/types/Attribute"
                    ]
                }
            }
        },
        {
            "type": "PRIMITIVE",
            "primitive": {
                "id": "4503a4c6-42f7-45a1-a1d4-ed69699cf5e1",
                "version": "0.3.0",
                "python_path": "d3m.primitives.data_transformation.extract_columns_by_semantic_types.Common",
                "name": "Extracts columns by semantic type",
                "digest": "420ab338eaf2159a6acb142be4d152442889028a0a18a5b15a8bf28e648b7f90"
            },
            "arguments": {
                "inputs": {
                    "type": "CONTAINER",
                    "data": "steps.1.produce"
                }
            },
            "outputs": [
                {
                    "id": "produce"
                }
            ],
            "hyperparams": {
                "semantic_types": {
                    "type": "VALUE",
                    "data": [
                        "https://metadata.datadrivendiscovery.org/types/TrueTarget"
                    ]
                }
            }
        },
        {
            "type": "PRIMITIVE",
            "primitive": {
                "id": "d016df89-de62-3c53-87ed-c06bb6a23cde",
                "version": "2019.11.13",
                "python_path": "d3m.primitives.data_cleaning.imputer.SKlearn",
                "name": "sklearn.impute.SimpleImputer",
                "digest": "1fbe6321949de3f9bd1d93c6900cd5c3b3ee4b1a01506b89c69a776a9d27bf7a"
            },
            "arguments": {
                "inputs": {
                    "type": "CONTAINER",
                    "data": "steps.2.produce"
                }
            },
            "outputs": [
                {
                    "id": "produce"
                }
            ],
            "hyperparams": {
                "use_semantic_types": {
                    "type": "VALUE",
                    "data": true
                },
                "return_result": {
                    "type": "VALUE",
                    "data": "replace"
                }
            }
        },
        {
            "type": "PRIMITIVE",
            "primitive": {
                "id": "34f71b2e-17bb-488d-a2ba-b60b8c305539",
                "version": "0.1.0",
                "python_path": "d3m.primitives.data_transformation.dataframe_to_ndarray.Common",
                "name": "DataFrame to ndarray converter",
                "digest": "78bda125fa81b1e566d47dfd4229e4a8594202c4317d65d110b196afa141bb6c"
            },
            "arguments": {
                "inputs": {
                    "type": "CONTAINER",
                    "data": "steps.4.produce"
                }
            },
            "outputs": [
                {
                    "id": "produce"
                }
            ]
        },
        {
            "type": "PRIMITIVE",
            "primitive": {
                "id": "34f71b2e-17bb-488d-a2ba-b60b8c305539",
                "version": "0.1.0",
                "python_path": "d3m.primitives.data_transformation.dataframe_to_ndarray.Common",
                "name": "DataFrame to ndarray converter",
                "digest": "78bda125fa81b1e566d47dfd4229e4a8594202c4317d65d110b196afa141bb6c"
            },
            "arguments": {
                "inputs": {
                    "type": "CONTAINER",
                    "data": "steps.3.produce"
                }
            },
            "outputs": [
                {
                    "id": "produce"
                }
            ]
        },
        {
            "type": "PRIMITIVE",
            "primitive": {
                "id": "fab94f96-74f4-4987-ab45-2a992cb37e0b",
                "version": "0.0.5",
                "python_path": "d3m.primitives.regression.owl_regression.Umich",
                "name": "OWLRegression",
                "digest": "92e792413d193a98d8e78b75460e68e5b497a0b572f23d2cb1e0329190823a2a"
            },
            "arguments": {
                "inputs": {
                    "type": "CONTAINER",
                    "data": "steps.5.produce"
                },
                "outputs": {
                    "type": "CONTAINER",
                    "data": "steps.6.produce"
                }
            },
            "outputs": [
                {
                    "id": "produce"
                }
            ],
            "hyperparams": {
                "normalize": {
                    "type": "VALUE",
                    "data": true
                },
                "learning_rate": {
                    "type": "VALUE",
                    "data": 0.2
                },
                "tol": {
                    "type": "VALUE",
                    "data": 0.001
                },
                "weight_max_val": {
                    "type": "VALUE",
                    "data": 175
                },
                "weight_max_off": {
                    "type": "VALUE",
                    "data": 0
                },
                "weight_min_val": {
                    "type": "VALUE",
                    "data": 0
                },
                "weight_min_off": {
                    "type": "VALUE",
                    "data": 6
                }
            }
        },
        {
            "type": "PRIMITIVE",
            "primitive": {
                "id": "f5241b2e-64f7-44ad-9675-df3d08066437",
                "version": "0.1.0",
                "python_path": "d3m.primitives.data_transformation.ndarray_to_dataframe.Common",
                "name": "ndarray to Dataframe converter",
                "digest": "7e94ef9cad31dd9af302f0ace0050394b6a04674a19537f6fa9c57cf2b21a356"
            },
            "arguments": {
                "inputs": {
                    "type": "CONTAINER",
                    "data": "steps.7.produce"
                }
            },
            "outputs": [
                {
                    "id": "produce"
                }
            ]
        },
        {
            "type": "PRIMITIVE",
            "primitive": {
                "id": "8d38b340-f83f-4877-baaa-162f8e551736",
                "version": "0.3.0",
                "python_path": "d3m.primitives.data_transformation.construct_predictions.Common",
                "name": "Construct pipeline predictions output",
                "digest": "0893a0c7da45fba2c68d6554db68d6082dae225f432dc0ad067d891e97e8a975"
            },
            "arguments": {
                "inputs": {
                    "type": "CONTAINER",
                    "data": "steps.8.produce"
                },
                "reference": {
                    "type": "CONTAINER",
                    "data": "steps.0.produce"
                }
            },
            "outputs": [
                {
                    "id": "produce"
                }
            ]
        }
    ],
    "digest": "856892bf0a52f67eb17aecb53674527e9cd544bc7b2a13604fe3bbd59d31f360"
}